…
We can do text analysis using the fantastic tidytext package. To use tidytext, we need to tokenise words to extract meaning and use tidytext’s sentiment analysis capabilities.
We can use unnest_tokens function uses the tokenizers package to separate each lyric line into words. The default tokenizing is for words, but other options include characters, n-grams, sentences, lines, paragraphs, or separation around a regex pattern.
We realised the lyrics of some songs have yet to be released.

tidy_smile <- tidy_smile %>%
  anti_join(get_stopwords())

We can remove stop words (available via the function get_stopwords()) with an anti_join().
Lets count the frequency of words.

tidy_smile %>%
  count(word, sort = TRUE) 

## # A tibble: 233 x 2
##    word         n
##    <chr>    <int>
##  1 smile       19
##  2 oh          17
##  3 baby        16
##  4 back        15
##  5 now         15
##  6 cause       13
##  7 finally     12
##  8 got         11
##  9 grateful    11
## 10 jeweler     11
## # … with 223 more rows
…
smile_sentiment_nrc <- tidy_smile %>%
  inner_join(get_sentiments("nrc"), by = "word") %>% 
  count(track_title, sentiment) 
smile_sentiment_nrc

## # A tibble: 50 x 3
##    track_title        sentiment        n
##    <chr>              <chr>        <int>
##  1 Cry About It Later anticipation     5
##  2 Cry About It Later joy              4
##  3 Cry About It Later negative         8
##  4 Cry About It Later positive         5
##  5 Cry About It Later sadness          4
##  6 Cry About It Later surprise         1
##  7 Cry About It Later trust            1
##  8 Harleys in Hawaii  anger            1
##  9 Harleys in Hawaii  anticipation     4
## 10 Harleys in Hawaii  disgust          1
## # … with 40 more rows
…
