…
This takes a long time, but doing parallel speeds up the process

collect_metrics(xgb_res)

## # A tibble: 60 x 11
##     mtry min_n tree_depth learn_rate loss_reduction sample_size .metric
##    <int> <int>      <int>      <dbl>          <dbl>       <dbl> <chr>
##  1     2    23          8   1.03e- 4   0.000363           0.404 accura…
##  2     2    23          8   1.03e- 4   0.000363           0.404 roc_auc
##  3     3     5          5   5.62e- 6   0.0125             0.923 accura…
##  4     3     5          5   5.62e- 6   0.0125             0.923 roc_auc
##  5     4    17         13   7.53e- 5   0.0000000245       0.516 accura…
##  6     4    17         13   7.53e- 5   0.0000000245       0.516 roc_auc
##  7     5    28          7   4.96e- 8  13.0                0.440 accura…
##  8     5    28          7   4.96e- 8  13.0                0.440 roc_auc
##  9     6    13         13   1.25e-10   0.000200           0.975 accura…
## 10     6    13         13   1.25e-10   0.000200           0.975 roc_auc
## # … with 50 more rows, and 4 more variables: .estimator <chr>, mean <dbl>,
## #   n <int>, std_err <dbl>
…
